[comment encoding = UTF-8 /]
[module CFConfiguration('http://www.eclipse.org/edu/kit/decia')]

[template public generateCFConfiguration(aCFConfiguration : CFConfiguration)]
{
	"APIEndpoint" : "[aCFConfiguration.APIEndpoint /]",
	"username" : "[aCFConfiguration.username /]",
	"password" : "[aCFConfiguration.password /]",
	"OrgName" : "[aCFConfiguration.OrgName /]",
	"SpaceName" : "[aCFConfiguration.SpaceName /]"	
}
[/template]
